Terminals unused in grammar

   WHITESPACE


Grammar

    0 $accept: program $end

    1 program: programcont
    2        | %empty

    3 programcont: stmt
    4            | programcont stmt

    5 stmt: expr SEMICOL
    6     | ifstmt
    7     | whilestmt
    8     | forstmt
    9     | returnstmt
   10     | BREAK SEMICOL
   11     | CONTINUE SEMICOL
   12     | block
   13     | funcdef
   14     | SEMICOL

   15 expr: assignexpr
   16     | expr PLUS expr
   17     | expr MINUS expr
   18     | expr MUL expr
   19     | expr DIV expr
   20     | expr MOD expr
   21     | expr GREATER expr
   22     | expr LESS expr
   23     | expr GEQ expr
   24     | expr LEQ expr
   25     | expr EQ expr
   26     | expr NEQ expr
   27     | expr AND expr
   28     | expr OR expr
   29     | term

   30 term: PAR_O expr PAR_C
   31     | MINUS expr
   32     | NOT expr
   33     | PP lvalue
   34     | lvalue PP
   35     | MM lvalue
   36     | lvalue MM
   37     | primary

   38 assignexpr: lvalue ASSIGN expr

   39 primary: lvalue
   40        | call
   41        | lvalue tablemake
   42        | PAR_O funcdef PAR_C
   43        | const

   44 lvalue: ID
   45       | LOCAL ID
   46       | COLON2 ID
   47       | member

   48 member: lvalue DOT ID
   49       | call DOT ID
   50       | call SBRKT_O expr SBRKT_C

   51 call: call PAR_O elist PAR_C

   52 $@1: %empty

   53 call: lvalue $@1 callsuffix
   54     | PAR_O funcdef PAR_C PAR_O elist PAR_C

   55 callsuffix: normcall
   56           | methodcall

   57 normcall: PAR_O elist PAR_C

   58 $@2: %empty

   59 methodcall: DOT2 ID $@2 PAR_O elist PAR_C

   60 tablemake: SBRKT_O elist SBRKT_C
   61          | SBRKT_O indexed SBRKT_C

   62 indexed: indexedelem indexed2

   63 indexed2: COMMA indexedelem indexed2
   64         | %empty

   65 indexedelem: BRKT_O expr COLON expr BRKT_C

   66 block: BRKT_O BRKT_C

   67 $@3: %empty

   68 block: BRKT_O $@3 programcont BRKT_C

   69 $@4: %empty

   70 $@5: %empty

   71 $@6: %empty

   72 funcdef: FUNCTION ID $@4 PAR_O $@5 idlist $@6 PAR_C block

   73 $@7: %empty

   74 $@8: %empty

   75 $@9: %empty

   76 funcdef: FUNCTION PAR_O $@7 idlist $@8 PAR_C $@9 block

   77 const: INTEGER
   78      | REAL
   79      | STR
   80      | NIL
   81      | TRUE
   82      | FALSE

   83 $@10: %empty

   84 idlist: ID $@10 idlist2
   85       | %empty

   86 $@11: %empty

   87 idlist2: COMMA ID $@11 idlist2
   88        | %empty

   89 ifprefix: IF PAR_O expr PAR_C

   90 elseprefix: ELSE

   91 ifstmt: ifprefix stmt
   92       | ifprefix stmt elseprefix stmt

   93 whilestart: WHILE

   94 whilecont: PAR_O expr PAR_C

   95 whilestmt: whilestart whilecont stmt

   96 FOR_M: %empty

   97 FOR_JMP: %empty

   98 forprefix: FOR PAR_O elist SEMICOL FOR_M expr SEMICOL

   99 formiddle: forprefix FOR_JMP elist PAR_C FOR_JMP

  100 forstmt: formiddle stmt FOR_JMP

  101 returnstmt: RETURN SEMICOL
  102           | RETURN expr SEMICOL

  103 elist: expr elist2
  104      | %empty

  105 elist2: COMMA expr elist2
  106       | %empty


Terminals, with rules where they appear

$end (0) 0
error (256)
IF (258) 89
ELSE (259) 90
WHILE (260) 93
FOR (261) 98
FUNCTION (262) 72 76
RETURN (263) 101 102
BREAK (264) 10
CONTINUE (265) 11
AND (266) 27
NOT (267) 32
OR (268) 28
LOCAL (269) 45
TRUE (270) 81
FALSE (271) 82
NIL (272) 80
ASSIGN (273) 38
PLUS (274) 16
MINUS (275) 17 31
MUL (276) 18
DIV (277) 19
MOD (278) 20
EQ (279) 25
NEQ (280) 26
PP (281) 33 34
MM (282) 35 36
GREATER (283) 21
LESS (284) 22
GEQ (285) 23
LEQ (286) 24
INTEGER (287) 77
REAL (288) 78
ID (289) 44 45 46 48 49 59 72 84 87
STR (290) 79
WHITESPACE (291)
BRKT_O (292) 65 66 68
BRKT_C (293) 65 66 68
SBRKT_O (294) 50 60 61
SBRKT_C (295) 50 60 61
PAR_O (296) 30 42 51 54 57 59 72 76 89 94 98
PAR_C (297) 30 42 51 54 57 59 72 76 89 94 99
SEMICOL (298) 5 10 11 14 98 101 102
COMMA (299) 63 87 105
COLON (300) 65
COLON2 (301) 46
DOT (302) 48 49
DOT2 (303) 59
LOWER_THAN_ELSE (304)
UMINUS (305)


Nonterminals, with rules where they appear

$accept (51)
    on left: 0
program (52)
    on left: 1 2, on right: 0
programcont (53)
    on left: 3 4, on right: 1 4 68
stmt (54)
    on left: 5 6 7 8 9 10 11 12 13 14, on right: 3 4 91 92 95 100
expr (55)
    on left: 15 16 17 18 19 20 21 22 23 24 25 26 27 28 29, on right:
    5 16 17 18 19 20 21 22 23 24 25 26 27 28 30 31 32 38 50 65 89 94
    98 102 103 105
term (56)
    on left: 30 31 32 33 34 35 36 37, on right: 29
assignexpr (57)
    on left: 38, on right: 15
primary (58)
    on left: 39 40 41 42 43, on right: 37
lvalue (59)
    on left: 44 45 46 47, on right: 33 34 35 36 38 39 41 48 53
member (60)
    on left: 48 49 50, on right: 47
call (61)
    on left: 51 53 54, on right: 40 49 50 51
$@1 (62)
    on left: 52, on right: 53
callsuffix (63)
    on left: 55 56, on right: 53
normcall (64)
    on left: 57, on right: 55
methodcall (65)
    on left: 59, on right: 56
$@2 (66)
    on left: 58, on right: 59
tablemake (67)
    on left: 60 61, on right: 41
indexed (68)
    on left: 62, on right: 61
indexed2 (69)
    on left: 63 64, on right: 62 63
indexedelem (70)
    on left: 65, on right: 62 63
block (71)
    on left: 66 68, on right: 12 72 76
$@3 (72)
    on left: 67, on right: 68
funcdef (73)
    on left: 72 76, on right: 13 42 54
$@4 (74)
    on left: 69, on right: 72
$@5 (75)
    on left: 70, on right: 72
$@6 (76)
    on left: 71, on right: 72
$@7 (77)
    on left: 73, on right: 76
$@8 (78)
    on left: 74, on right: 76
$@9 (79)
    on left: 75, on right: 76
const (80)
    on left: 77 78 79 80 81 82, on right: 43
idlist (81)
    on left: 84 85, on right: 72 76
$@10 (82)
    on left: 83, on right: 84
idlist2 (83)
    on left: 87 88, on right: 84 87
$@11 (84)
    on left: 86, on right: 87
ifprefix (85)
    on left: 89, on right: 91 92
elseprefix (86)
    on left: 90, on right: 92
ifstmt (87)
    on left: 91 92, on right: 6
whilestart (88)
    on left: 93, on right: 95
whilecont (89)
    on left: 94, on right: 95
whilestmt (90)
    on left: 95, on right: 7
FOR_M (91)
    on left: 96, on right: 98
FOR_JMP (92)
    on left: 97, on right: 99 100
forprefix (93)
    on left: 98, on right: 99
formiddle (94)
    on left: 99, on right: 100
forstmt (95)
    on left: 100, on right: 8
returnstmt (96)
    on left: 101 102, on right: 9
elist (97)
    on left: 103 104, on right: 51 54 57 59 60 98 99
elist2 (98)
    on left: 105 106, on right: 103 105


State 0

    0 $accept: . program $end

    IF        shift, and go to state 1
    WHILE     shift, and go to state 2
    FOR       shift, and go to state 3
    FUNCTION  shift, and go to state 4
    RETURN    shift, and go to state 5
    BREAK     shift, and go to state 6
    CONTINUE  shift, and go to state 7
    NOT       shift, and go to state 8
    LOCAL     shift, and go to state 9
    TRUE      shift, and go to state 10
    FALSE     shift, and go to state 11
    NIL       shift, and go to state 12
    MINUS     shift, and go to state 13
    PP        shift, and go to state 14
    MM        shift, and go to state 15
    INTEGER   shift, and go to state 16
    REAL      shift, and go to state 17
    ID        shift, and go to state 18
    STR       shift, and go to state 19
    BRKT_O    shift, and go to state 20
    PAR_O     shift, and go to state 21
    SEMICOL   shift, and go to state 22
    COLON2    shift, and go to state 23

    $default  reduce using rule 2 (program)

    program      go to state 24
    programcont  go to state 25
    stmt         go to state 26
    expr         go to state 27
    term         go to state 28
    assignexpr   go to state 29
    primary      go to state 30
    lvalue       go to state 31
    member       go to state 32
    call         go to state 33
    block        go to state 34
    funcdef      go to state 35
    const        go to state 36
    ifprefix     go to state 37
    ifstmt       go to state 38
    whilestart   go to state 39
    whilestmt    go to state 40
    forprefix    go to state 41
    formiddle    go to state 42
    forstmt      go to state 43
    returnstmt   go to state 44


State 1

   89 ifprefix: IF . PAR_O expr PAR_C

    PAR_O  shift, and go to state 45


State 2

   93 whilestart: WHILE .

    $default  reduce using rule 93 (whilestart)


State 3

   98 forprefix: FOR . PAR_O elist SEMICOL FOR_M expr SEMICOL

    PAR_O  shift, and go to state 46


State 4

   72 funcdef: FUNCTION . ID $@4 PAR_O $@5 idlist $@6 PAR_C block
   76        | FUNCTION . PAR_O $@7 idlist $@8 PAR_C $@9 block

    ID     shift, and go to state 47
    PAR_O  shift, and go to state 48


State 5

  101 returnstmt: RETURN . SEMICOL
  102           | RETURN . expr SEMICOL

    NOT      shift, and go to state 8
    LOCAL    shift, and go to state 9
    TRUE     shift, and go to state 10
    FALSE    shift, and go to state 11
    NIL      shift, and go to state 12
    MINUS    shift, and go to state 13
    PP       shift, and go to state 14
    MM       shift, and go to state 15
    INTEGER  shift, and go to state 16
    REAL     shift, and go to state 17
    ID       shift, and go to state 18
    STR      shift, and go to state 19
    PAR_O    shift, and go to state 21
    SEMICOL  shift, and go to state 49
    COLON2   shift, and go to state 23

    expr        go to state 50
    term        go to state 28
    assignexpr  go to state 29
    primary     go to state 30
    lvalue      go to state 31
    member      go to state 32
    call        go to state 33
    const       go to state 36


State 6

   10 stmt: BREAK . SEMICOL

    SEMICOL  shift, and go to state 51


State 7

   11 stmt: CONTINUE . SEMICOL

    SEMICOL  shift, and go to state 52


State 8

   32 term: NOT . expr

    NOT      shift, and go to state 8
    LOCAL    shift, and go to state 9
    TRUE     shift, and go to state 10
    FALSE    shift, and go to state 11
    NIL      shift, and go to state 12
    MINUS    shift, and go to state 13
    PP       shift, and go to state 14
    MM       shift, and go to state 15
    INTEGER  shift, and go to state 16
    REAL     shift, and go to state 17
    ID       shift, and go to state 18
    STR      shift, and go to state 19
    PAR_O    shift, and go to state 21
    COLON2   shift, and go to state 23

    expr        go to state 53
    term        go to state 28
    assignexpr  go to state 29
    primary     go to state 30
    lvalue      go to state 31
    member      go to state 32
    call        go to state 33
    const       go to state 36


State 9

   45 lvalue: LOCAL . ID

    ID  shift, and go to state 54


State 10

   81 const: TRUE .

    $default  reduce using rule 81 (const)


State 11

   82 const: FALSE .

    $default  reduce using rule 82 (const)


State 12

   80 const: NIL .

    $default  reduce using rule 80 (const)


State 13

   31 term: MINUS . expr

    NOT      shift, and go to state 8
    LOCAL    shift, and go to state 9
    TRUE     shift, and go to state 10
    FALSE    shift, and go to state 11
    NIL      shift, and go to state 12
    MINUS    shift, and go to state 13
    PP       shift, and go to state 14
    MM       shift, and go to state 15
    INTEGER  shift, and go to state 16
    REAL     shift, and go to state 17
    ID       shift, and go to state 18
    STR      shift, and go to state 19
    PAR_O    shift, and go to state 21
    COLON2   shift, and go to state 23

    expr        go to state 55
    term        go to state 28
    assignexpr  go to state 29
    primary     go to state 30
    lvalue      go to state 31
    member      go to state 32
    call        go to state 33
    const       go to state 36


State 14

   33 term: PP . lvalue

    LOCAL   shift, and go to state 9
    ID      shift, and go to state 18
    PAR_O   shift, and go to state 56
    COLON2  shift, and go to state 23

    lvalue  go to state 57
    member  go to state 32
    call    go to state 58


State 15

   35 term: MM . lvalue

    LOCAL   shift, and go to state 9
    ID      shift, and go to state 18
    PAR_O   shift, and go to state 56
    COLON2  shift, and go to state 23

    lvalue  go to state 59
    member  go to state 32
    call    go to state 58


State 16

   77 const: INTEGER .

    $default  reduce using rule 77 (const)


State 17

   78 const: REAL .

    $default  reduce using rule 78 (const)


State 18

   44 lvalue: ID .

    $default  reduce using rule 44 (lvalue)


State 19

   79 const: STR .

    $default  reduce using rule 79 (const)


State 20

   66 block: BRKT_O . BRKT_C
   68      | BRKT_O . $@3 programcont BRKT_C

    BRKT_C  shift, and go to state 60

    $default  reduce using rule 67 ($@3)

    $@3  go to state 61


State 21

   30 term: PAR_O . expr PAR_C
   42 primary: PAR_O . funcdef PAR_C
   54 call: PAR_O . funcdef PAR_C PAR_O elist PAR_C

    FUNCTION  shift, and go to state 4
    NOT       shift, and go to state 8
    LOCAL     shift, and go to state 9
    TRUE      shift, and go to state 10
    FALSE     shift, and go to state 11
    NIL       shift, and go to state 12
    MINUS     shift, and go to state 13
    PP        shift, and go to state 14
    MM        shift, and go to state 15
    INTEGER   shift, and go to state 16
    REAL      shift, and go to state 17
    ID        shift, and go to state 18
    STR       shift, and go to state 19
    PAR_O     shift, and go to state 21
    COLON2    shift, and go to state 23

    expr        go to state 62
    term        go to state 28
    assignexpr  go to state 29
    primary     go to state 30
    lvalue      go to state 31
    member      go to state 32
    call        go to state 33
    funcdef     go to state 63
    const       go to state 36


State 22

   14 stmt: SEMICOL .

    $default  reduce using rule 14 (stmt)


State 23

   46 lvalue: COLON2 . ID

    ID  shift, and go to state 64


State 24

    0 $accept: program . $end

    $end  shift, and go to state 65


State 25

    1 program: programcont .
    4 programcont: programcont . stmt

    IF        shift, and go to state 1
    WHILE     shift, and go to state 2
    FOR       shift, and go to state 3
    FUNCTION  shift, and go to state 4
    RETURN    shift, and go to state 5
    BREAK     shift, and go to state 6
    CONTINUE  shift, and go to state 7
    NOT       shift, and go to state 8
    LOCAL     shift, and go to state 9
    TRUE      shift, and go to state 10
    FALSE     shift, and go to state 11
    NIL       shift, and go to state 12
    MINUS     shift, and go to state 13
    PP        shift, and go to state 14
    MM        shift, and go to state 15
    INTEGER   shift, and go to state 16
    REAL      shift, and go to state 17
    ID        shift, and go to state 18
    STR       shift, and go to state 19
    BRKT_O    shift, and go to state 20
    PAR_O     shift, and go to state 21
    SEMICOL   shift, and go to state 22
    COLON2    shift, and go to state 23

    $default  reduce using rule 1 (program)

    stmt        go to state 66
    expr        go to state 27
    term        go to state 28
    assignexpr  go to state 29
    primary     go to state 30
    lvalue      go to state 31
    member      go to state 32
    call        go to state 33
    block       go to state 34
    funcdef     go to state 35
    const       go to state 36
    ifprefix    go to state 37
    ifstmt      go to state 38
    whilestart  go to state 39
    whilestmt   go to state 40
    forprefix   go to state 41
    formiddle   go to state 42
    forstmt     go to state 43
    returnstmt  go to state 44


State 26

    3 programcont: stmt .

    $default  reduce using rule 3 (programcont)


State 27

    5 stmt: expr . SEMICOL
   16 expr: expr . PLUS expr
   17     | expr . MINUS expr
   18     | expr . MUL expr
   19     | expr . DIV expr
   20     | expr . MOD expr
   21     | expr . GREATER expr
   22     | expr . LESS expr
   23     | expr . GEQ expr
   24     | expr . LEQ expr
   25     | expr . EQ expr
   26     | expr . NEQ expr
   27     | expr . AND expr
   28     | expr . OR expr

    AND      shift, and go to state 67
    OR       shift, and go to state 68
    PLUS     shift, and go to state 69
    MINUS    shift, and go to state 70
    MUL      shift, and go to state 71
    DIV      shift, and go to state 72
    MOD      shift, and go to state 73
    EQ       shift, and go to state 74
    NEQ      shift, and go to state 75
    GREATER  shift, and go to state 76
    LESS     shift, and go to state 77
    GEQ      shift, and go to state 78
    LEQ      shift, and go to state 79
    SEMICOL  shift, and go to state 80


State 28

   29 expr: term .

    $default  reduce using rule 29 (expr)


State 29

   15 expr: assignexpr .

    $default  reduce using rule 15 (expr)


State 30

   37 term: primary .

    $default  reduce using rule 37 (term)


State 31

   34 term: lvalue . PP
   36     | lvalue . MM
   38 assignexpr: lvalue . ASSIGN expr
   39 primary: lvalue .
   41        | lvalue . tablemake
   48 member: lvalue . DOT ID
   53 call: lvalue . $@1 callsuffix

    ASSIGN   shift, and go to state 81
    PP       shift, and go to state 82
    MM       shift, and go to state 83
    SBRKT_O  shift, and go to state 84
    DOT      shift, and go to state 85

    PAR_O     reduce using rule 52 ($@1)
    DOT2      reduce using rule 52 ($@1)
    $default  reduce using rule 39 (primary)

    $@1        go to state 86
    tablemake  go to state 87


State 32

   47 lvalue: member .

    $default  reduce using rule 47 (lvalue)


State 33

   40 primary: call .
   49 member: call . DOT ID
   50       | call . SBRKT_O expr SBRKT_C
   51 call: call . PAR_O elist PAR_C

    SBRKT_O  shift, and go to state 88
    PAR_O    shift, and go to state 89
    DOT      shift, and go to state 90

    $default  reduce using rule 40 (primary)


State 34

   12 stmt: block .

    $default  reduce using rule 12 (stmt)


State 35

   13 stmt: funcdef .

    $default  reduce using rule 13 (stmt)


State 36

   43 primary: const .

    $default  reduce using rule 43 (primary)


State 37

   91 ifstmt: ifprefix . stmt
   92       | ifprefix . stmt elseprefix stmt

    IF        shift, and go to state 1
    WHILE     shift, and go to state 2
    FOR       shift, and go to state 3
    FUNCTION  shift, and go to state 4
    RETURN    shift, and go to state 5
    BREAK     shift, and go to state 6
    CONTINUE  shift, and go to state 7
    NOT       shift, and go to state 8
    LOCAL     shift, and go to state 9
    TRUE      shift, and go to state 10
    FALSE     shift, and go to state 11
    NIL       shift, and go to state 12
    MINUS     shift, and go to state 13
    PP        shift, and go to state 14
    MM        shift, and go to state 15
    INTEGER   shift, and go to state 16
    REAL      shift, and go to state 17
    ID        shift, and go to state 18
    STR       shift, and go to state 19
    BRKT_O    shift, and go to state 20
    PAR_O     shift, and go to state 21
    SEMICOL   shift, and go to state 22
    COLON2    shift, and go to state 23

    stmt        go to state 91
    expr        go to state 27
    term        go to state 28
    assignexpr  go to state 29
    primary     go to state 30
    lvalue      go to state 31
    member      go to state 32
    call        go to state 33
    block       go to state 34
    funcdef     go to state 35
    const       go to state 36
    ifprefix    go to state 37
    ifstmt      go to state 38
    whilestart  go to state 39
    whilestmt   go to state 40
    forprefix   go to state 41
    formiddle   go to state 42
    forstmt     go to state 43
    returnstmt  go to state 44


State 38

    6 stmt: ifstmt .

    $default  reduce using rule 6 (stmt)


State 39

   95 whilestmt: whilestart . whilecont stmt

    PAR_O  shift, and go to state 92

    whilecont  go to state 93


State 40

    7 stmt: whilestmt .

    $default  reduce using rule 7 (stmt)


State 41

   99 formiddle: forprefix . FOR_JMP elist PAR_C FOR_JMP

    $default  reduce using rule 97 (FOR_JMP)

    FOR_JMP  go to state 94


State 42

  100 forstmt: formiddle . stmt FOR_JMP

    IF        shift, and go to state 1
    WHILE     shift, and go to state 2
    FOR       shift, and go to state 3
    FUNCTION  shift, and go to state 4
    RETURN    shift, and go to state 5
    BREAK     shift, and go to state 6
    CONTINUE  shift, and go to state 7
    NOT       shift, and go to state 8
    LOCAL     shift, and go to state 9
    TRUE      shift, and go to state 10
    FALSE     shift, and go to state 11
    NIL       shift, and go to state 12
    MINUS     shift, and go to state 13
    PP        shift, and go to state 14
    MM        shift, and go to state 15
    INTEGER   shift, and go to state 16
    REAL      shift, and go to state 17
    ID        shift, and go to state 18
    STR       shift, and go to state 19
    BRKT_O    shift, and go to state 20
    PAR_O     shift, and go to state 21
    SEMICOL   shift, and go to state 22
    COLON2    shift, and go to state 23

    stmt        go to state 95
    expr        go to state 27
    term        go to state 28
    assignexpr  go to state 29
    primary     go to state 30
    lvalue      go to state 31
    member      go to state 32
    call        go to state 33
    block       go to state 34
    funcdef     go to state 35
    const       go to state 36
    ifprefix    go to state 37
    ifstmt      go to state 38
    whilestart  go to state 39
    whilestmt   go to state 40
    forprefix   go to state 41
    formiddle   go to state 42
    forstmt     go to state 43
    returnstmt  go to state 44


State 43

    8 stmt: forstmt .

    $default  reduce using rule 8 (stmt)


State 44

    9 stmt: returnstmt .

    $default  reduce using rule 9 (stmt)


State 45

   89 ifprefix: IF PAR_O . expr PAR_C

    NOT      shift, and go to state 8
    LOCAL    shift, and go to state 9
    TRUE     shift, and go to state 10
    FALSE    shift, and go to state 11
    NIL      shift, and go to state 12
    MINUS    shift, and go to state 13
    PP       shift, and go to state 14
    MM       shift, and go to state 15
    INTEGER  shift, and go to state 16
    REAL     shift, and go to state 17
    ID       shift, and go to state 18
    STR      shift, and go to state 19
    PAR_O    shift, and go to state 21
    COLON2   shift, and go to state 23

    expr        go to state 96
    term        go to state 28
    assignexpr  go to state 29
    primary     go to state 30
    lvalue      go to state 31
    member      go to state 32
    call        go to state 33
    const       go to state 36


State 46

   98 forprefix: FOR PAR_O . elist SEMICOL FOR_M expr SEMICOL

    NOT      shift, and go to state 8
    LOCAL    shift, and go to state 9
    TRUE     shift, and go to state 10
    FALSE    shift, and go to state 11
    NIL      shift, and go to state 12
    MINUS    shift, and go to state 13
    PP       shift, and go to state 14
    MM       shift, and go to state 15
    INTEGER  shift, and go to state 16
    REAL     shift, and go to state 17
    ID       shift, and go to state 18
    STR      shift, and go to state 19
    PAR_O    shift, and go to state 21
    COLON2   shift, and go to state 23

    $default  reduce using rule 104 (elist)

    expr        go to state 97
    term        go to state 28
    assignexpr  go to state 29
    primary     go to state 30
    lvalue      go to state 31
    member      go to state 32
    call        go to state 33
    const       go to state 36
    elist       go to state 98


State 47

   72 funcdef: FUNCTION ID . $@4 PAR_O $@5 idlist $@6 PAR_C block

    $default  reduce using rule 69 ($@4)

    $@4  go to state 99


State 48

   76 funcdef: FUNCTION PAR_O . $@7 idlist $@8 PAR_C $@9 block

    $default  reduce using rule 73 ($@7)

    $@7  go to state 100


State 49

  101 returnstmt: RETURN SEMICOL .

    $default  reduce using rule 101 (returnstmt)


State 50

   16 expr: expr . PLUS expr
   17     | expr . MINUS expr
   18     | expr . MUL expr
   19     | expr . DIV expr
   20     | expr . MOD expr
   21     | expr . GREATER expr
   22     | expr . LESS expr
   23     | expr . GEQ expr
   24     | expr . LEQ expr
   25     | expr . EQ expr
   26     | expr . NEQ expr
   27     | expr . AND expr
   28     | expr . OR expr
  102 returnstmt: RETURN expr . SEMICOL

    AND      shift, and go to state 67
    OR       shift, and go to state 68
    PLUS     shift, and go to state 69
    MINUS    shift, and go to state 70
    MUL      shift, and go to state 71
    DIV      shift, and go to state 72
    MOD      shift, and go to state 73
    EQ       shift, and go to state 74
    NEQ      shift, and go to state 75
    GREATER  shift, and go to state 76
    LESS     shift, and go to state 77
    GEQ      shift, and go to state 78
    LEQ      shift, and go to state 79
    SEMICOL  shift, and go to state 101


State 51

   10 stmt: BREAK SEMICOL .

    $default  reduce using rule 10 (stmt)


State 52

   11 stmt: CONTINUE SEMICOL .

    $default  reduce using rule 11 (stmt)


State 53

   16 expr: expr . PLUS expr
   17     | expr . MINUS expr
   18     | expr . MUL expr
   19     | expr . DIV expr
   20     | expr . MOD expr
   21     | expr . GREATER expr
   22     | expr . LESS expr
   23     | expr . GEQ expr
   24     | expr . LEQ expr
   25     | expr . EQ expr
   26     | expr . NEQ expr
   27     | expr . AND expr
   28     | expr . OR expr
   32 term: NOT expr .

    $default  reduce using rule 32 (term)


State 54

   45 lvalue: LOCAL ID .

    $default  reduce using rule 45 (lvalue)


State 55

   16 expr: expr . PLUS expr
   17     | expr . MINUS expr
   18     | expr . MUL expr
   19     | expr . DIV expr
   20     | expr . MOD expr
   21     | expr . GREATER expr
   22     | expr . LESS expr
   23     | expr . GEQ expr
   24     | expr . LEQ expr
   25     | expr . EQ expr
   26     | expr . NEQ expr
   27     | expr . AND expr
   28     | expr . OR expr
   31 term: MINUS expr .

    $default  reduce using rule 31 (term)


State 56

   54 call: PAR_O . funcdef PAR_C PAR_O elist PAR_C

    FUNCTION  shift, and go to state 4

    funcdef  go to state 102


State 57

   33 term: PP lvalue .
   48 member: lvalue . DOT ID
   53 call: lvalue . $@1 callsuffix

    DOT  shift, and go to state 85

    PAR_O     reduce using rule 52 ($@1)
    DOT2      reduce using rule 52 ($@1)
    $default  reduce using rule 33 (term)

    $@1  go to state 86


State 58

   49 member: call . DOT ID
   50       | call . SBRKT_O expr SBRKT_C
   51 call: call . PAR_O elist PAR_C

    SBRKT_O  shift, and go to state 88
    PAR_O    shift, and go to state 89
    DOT      shift, and go to state 90


State 59

   35 term: MM lvalue .
   48 member: lvalue . DOT ID
   53 call: lvalue . $@1 callsuffix

    DOT  shift, and go to state 85

    PAR_O     reduce using rule 52 ($@1)
    DOT2      reduce using rule 52 ($@1)
    $default  reduce using rule 35 (term)

    $@1  go to state 86


State 60

   66 block: BRKT_O BRKT_C .

    $default  reduce using rule 66 (block)


State 61

   68 block: BRKT_O $@3 . programcont BRKT_C

    IF        shift, and go to state 1
    WHILE     shift, and go to state 2
    FOR       shift, and go to state 3
    FUNCTION  shift, and go to state 4
    RETURN    shift, and go to state 5
    BREAK     shift, and go to state 6
    CONTINUE  shift, and go to state 7
    NOT       shift, and go to state 8
    LOCAL     shift, and go to state 9
    TRUE      shift, and go to state 10
    FALSE     shift, and go to state 11
    NIL       shift, and go to state 12
    MINUS     shift, and go to state 13
    PP        shift, and go to state 14
    MM        shift, and go to state 15
    INTEGER   shift, and go to state 16
    REAL      shift, and go to state 17
    ID        shift, and go to state 18
    STR       shift, and go to state 19
    BRKT_O    shift, and go to state 20
    PAR_O     shift, and go to state 21
    SEMICOL   shift, and go to state 22
    COLON2    shift, and go to state 23

    programcont  go to state 103
    stmt         go to state 26
    expr         go to state 27
    term         go to state 28
    assignexpr   go to state 29
    primary      go to state 30
    lvalue       go to state 31
    member       go to state 32
    call         go to state 33
    block        go to state 34
    funcdef      go to state 35
    const        go to state 36
    ifprefix     go to state 37
    ifstmt       go to state 38
    whilestart   go to state 39
    whilestmt    go to state 40
    forprefix    go to state 41
    formiddle    go to state 42
    forstmt      go to state 43
    returnstmt   go to state 44


State 62

   16 expr: expr . PLUS expr
   17     | expr . MINUS expr
   18     | expr . MUL expr
   19     | expr . DIV expr
   20     | expr . MOD expr
   21     | expr . GREATER expr
   22     | expr . LESS expr
   23     | expr . GEQ expr
   24     | expr . LEQ expr
   25     | expr . EQ expr
   26     | expr . NEQ expr
   27     | expr . AND expr
   28     | expr . OR expr
   30 term: PAR_O expr . PAR_C

    AND      shift, and go to state 67
    OR       shift, and go to state 68
    PLUS     shift, and go to state 69
    MINUS    shift, and go to state 70
    MUL      shift, and go to state 71
    DIV      shift, and go to state 72
    MOD      shift, and go to state 73
    EQ       shift, and go to state 74
    NEQ      shift, and go to state 75
    GREATER  shift, and go to state 76
    LESS     shift, and go to state 77
    GEQ      shift, and go to state 78
    LEQ      shift, and go to state 79
    PAR_C    shift, and go to state 104


State 63

   42 primary: PAR_O funcdef . PAR_C
   54 call: PAR_O funcdef . PAR_C PAR_O elist PAR_C

    PAR_C  shift, and go to state 105


State 64

   46 lvalue: COLON2 ID .

    $default  reduce using rule 46 (lvalue)


State 65

    0 $accept: program $end .

    $default  accept


State 66

    4 programcont: programcont stmt .

    $default  reduce using rule 4 (programcont)


State 67

   27 expr: expr AND . expr

    NOT      shift, and go to state 8
    LOCAL    shift, and go to state 9
    TRUE     shift, and go to state 10
    FALSE    shift, and go to state 11
    NIL      shift, and go to state 12
    MINUS    shift, and go to state 13
    PP       shift, and go to state 14
    MM       shift, and go to state 15
    INTEGER  shift, and go to state 16
    REAL     shift, and go to state 17
    ID       shift, and go to state 18
    STR      shift, and go to state 19
    PAR_O    shift, and go to state 21
    COLON2   shift, and go to state 23

    expr        go to state 106
    term        go to state 28
    assignexpr  go to state 29
    primary     go to state 30
    lvalue      go to state 31
    member      go to state 32
    call        go to state 33
    const       go to state 36


State 68

   28 expr: expr OR . expr

    NOT      shift, and go to state 8
    LOCAL    shift, and go to state 9
    TRUE     shift, and go to state 10
    FALSE    shift, and go to state 11
    NIL      shift, and go to state 12
    MINUS    shift, and go to state 13
    PP       shift, and go to state 14
    MM       shift, and go to state 15
    INTEGER  shift, and go to state 16
    REAL     shift, and go to state 17
    ID       shift, and go to state 18
    STR      shift, and go to state 19
    PAR_O    shift, and go to state 21
    COLON2   shift, and go to state 23

    expr        go to state 107
    term        go to state 28
    assignexpr  go to state 29
    primary     go to state 30
    lvalue      go to state 31
    member      go to state 32
    call        go to state 33
    const       go to state 36


State 69

   16 expr: expr PLUS . expr

    NOT      shift, and go to state 8
    LOCAL    shift, and go to state 9
    TRUE     shift, and go to state 10
    FALSE    shift, and go to state 11
    NIL      shift, and go to state 12
    MINUS    shift, and go to state 13
    PP       shift, and go to state 14
    MM       shift, and go to state 15
    INTEGER  shift, and go to state 16
    REAL     shift, and go to state 17
    ID       shift, and go to state 18
    STR      shift, and go to state 19
    PAR_O    shift, and go to state 21
    COLON2   shift, and go to state 23

    expr        go to state 108
    term        go to state 28
    assignexpr  go to state 29
    primary     go to state 30
    lvalue      go to state 31
    member      go to state 32
    call        go to state 33
    const       go to state 36


State 70

   17 expr: expr MINUS . expr

    NOT      shift, and go to state 8
    LOCAL    shift, and go to state 9
    TRUE     shift, and go to state 10
    FALSE    shift, and go to state 11
    NIL      shift, and go to state 12
    MINUS    shift, and go to state 13
    PP       shift, and go to state 14
    MM       shift, and go to state 15
    INTEGER  shift, and go to state 16
    REAL     shift, and go to state 17
    ID       shift, and go to state 18
    STR      shift, and go to state 19
    PAR_O    shift, and go to state 21
    COLON2   shift, and go to state 23

    expr        go to state 109
    term        go to state 28
    assignexpr  go to state 29
    primary     go to state 30
    lvalue      go to state 31
    member      go to state 32
    call        go to state 33
    const       go to state 36


State 71

   18 expr: expr MUL . expr

    NOT      shift, and go to state 8
    LOCAL    shift, and go to state 9
    TRUE     shift, and go to state 10
    FALSE    shift, and go to state 11
    NIL      shift, and go to state 12
    MINUS    shift, and go to state 13
    PP       shift, and go to state 14
    MM       shift, and go to state 15
    INTEGER  shift, and go to state 16
    REAL     shift, and go to state 17
    ID       shift, and go to state 18
    STR      shift, and go to state 19
    PAR_O    shift, and go to state 21
    COLON2   shift, and go to state 23

    expr        go to state 110
    term        go to state 28
    assignexpr  go to state 29
    primary     go to state 30
    lvalue      go to state 31
    member      go to state 32
    call        go to state 33
    const       go to state 36


State 72

   19 expr: expr DIV . expr

    NOT      shift, and go to state 8
    LOCAL    shift, and go to state 9
    TRUE     shift, and go to state 10
    FALSE    shift, and go to state 11
    NIL      shift, and go to state 12
    MINUS    shift, and go to state 13
    PP       shift, and go to state 14
    MM       shift, and go to state 15
    INTEGER  shift, and go to state 16
    REAL     shift, and go to state 17
    ID       shift, and go to state 18
    STR      shift, and go to state 19
    PAR_O    shift, and go to state 21
    COLON2   shift, and go to state 23

    expr        go to state 111
    term        go to state 28
    assignexpr  go to state 29
    primary     go to state 30
    lvalue      go to state 31
    member      go to state 32
    call        go to state 33
    const       go to state 36


State 73

   20 expr: expr MOD . expr

    NOT      shift, and go to state 8
    LOCAL    shift, and go to state 9
    TRUE     shift, and go to state 10
    FALSE    shift, and go to state 11
    NIL      shift, and go to state 12
    MINUS    shift, and go to state 13
    PP       shift, and go to state 14
    MM       shift, and go to state 15
    INTEGER  shift, and go to state 16
    REAL     shift, and go to state 17
    ID       shift, and go to state 18
    STR      shift, and go to state 19
    PAR_O    shift, and go to state 21
    COLON2   shift, and go to state 23

    expr        go to state 112
    term        go to state 28
    assignexpr  go to state 29
    primary     go to state 30
    lvalue      go to state 31
    member      go to state 32
    call        go to state 33
    const       go to state 36


State 74

   25 expr: expr EQ . expr

    NOT      shift, and go to state 8
    LOCAL    shift, and go to state 9
    TRUE     shift, and go to state 10
    FALSE    shift, and go to state 11
    NIL      shift, and go to state 12
    MINUS    shift, and go to state 13
    PP       shift, and go to state 14
    MM       shift, and go to state 15
    INTEGER  shift, and go to state 16
    REAL     shift, and go to state 17
    ID       shift, and go to state 18
    STR      shift, and go to state 19
    PAR_O    shift, and go to state 21
    COLON2   shift, and go to state 23

    expr        go to state 113
    term        go to state 28
    assignexpr  go to state 29
    primary     go to state 30
    lvalue      go to state 31
    member      go to state 32
    call        go to state 33
    const       go to state 36


State 75

   26 expr: expr NEQ . expr

    NOT      shift, and go to state 8
    LOCAL    shift, and go to state 9
    TRUE     shift, and go to state 10
    FALSE    shift, and go to state 11
    NIL      shift, and go to state 12
    MINUS    shift, and go to state 13
    PP       shift, and go to state 14
    MM       shift, and go to state 15
    INTEGER  shift, and go to state 16
    REAL     shift, and go to state 17
    ID       shift, and go to state 18
    STR      shift, and go to state 19
    PAR_O    shift, and go to state 21
    COLON2   shift, and go to state 23

    expr        go to state 114
    term        go to state 28
    assignexpr  go to state 29
    primary     go to state 30
    lvalue      go to state 31
    member      go to state 32
    call        go to state 33
    const       go to state 36


State 76

   21 expr: expr GREATER . expr

    NOT      shift, and go to state 8
    LOCAL    shift, and go to state 9
    TRUE     shift, and go to state 10
    FALSE    shift, and go to state 11
    NIL      shift, and go to state 12
    MINUS    shift, and go to state 13
    PP       shift, and go to state 14
    MM       shift, and go to state 15
    INTEGER  shift, and go to state 16
    REAL     shift, and go to state 17
    ID       shift, and go to state 18
    STR      shift, and go to state 19
    PAR_O    shift, and go to state 21
    COLON2   shift, and go to state 23

    expr        go to state 115
    term        go to state 28
    assignexpr  go to state 29
    primary     go to state 30
    lvalue      go to state 31
    member      go to state 32
    call        go to state 33
    const       go to state 36


State 77

   22 expr: expr LESS . expr

    NOT      shift, and go to state 8
    LOCAL    shift, and go to state 9
    TRUE     shift, and go to state 10
    FALSE    shift, and go to state 11
    NIL      shift, and go to state 12
    MINUS    shift, and go to state 13
    PP       shift, and go to state 14
    MM       shift, and go to state 15
    INTEGER  shift, and go to state 16
    REAL     shift, and go to state 17
    ID       shift, and go to state 18
    STR      shift, and go to state 19
    PAR_O    shift, and go to state 21
    COLON2   shift, and go to state 23

    expr        go to state 116
    term        go to state 28
    assignexpr  go to state 29
    primary     go to state 30
    lvalue      go to state 31
    member      go to state 32
    call        go to state 33
    const       go to state 36


State 78

   23 expr: expr GEQ . expr

    NOT      shift, and go to state 8
    LOCAL    shift, and go to state 9
    TRUE     shift, and go to state 10
    FALSE    shift, and go to state 11
    NIL      shift, and go to state 12
    MINUS    shift, and go to state 13
    PP       shift, and go to state 14
    MM       shift, and go to state 15
    INTEGER  shift, and go to state 16
    REAL     shift, and go to state 17
    ID       shift, and go to state 18
    STR      shift, and go to state 19
    PAR_O    shift, and go to state 21
    COLON2   shift, and go to state 23

    expr        go to state 117
    term        go to state 28
    assignexpr  go to state 29
    primary     go to state 30
    lvalue      go to state 31
    member      go to state 32
    call        go to state 33
    const       go to state 36


State 79

   24 expr: expr LEQ . expr

    NOT      shift, and go to state 8
    LOCAL    shift, and go to state 9
    TRUE     shift, and go to state 10
    FALSE    shift, and go to state 11
    NIL      shift, and go to state 12
    MINUS    shift, and go to state 13
    PP       shift, and go to state 14
    MM       shift, and go to state 15
    INTEGER  shift, and go to state 16
    REAL     shift, and go to state 17
    ID       shift, and go to state 18
    STR      shift, and go to state 19
    PAR_O    shift, and go to state 21
    COLON2   shift, and go to state 23

    expr        go to state 118
    term        go to state 28
    assignexpr  go to state 29
    primary     go to state 30
    lvalue      go to state 31
    member      go to state 32
    call        go to state 33
    const       go to state 36


State 80

    5 stmt: expr SEMICOL .

    $default  reduce using rule 5 (stmt)


State 81

   38 assignexpr: lvalue ASSIGN . expr

    NOT      shift, and go to state 8
    LOCAL    shift, and go to state 9
    TRUE     shift, and go to state 10
    FALSE    shift, and go to state 11
    NIL      shift, and go to state 12
    MINUS    shift, and go to state 13
    PP       shift, and go to state 14
    MM       shift, and go to state 15
    INTEGER  shift, and go to state 16
    REAL     shift, and go to state 17
    ID       shift, and go to state 18
    STR      shift, and go to state 19
    PAR_O    shift, and go to state 21
    COLON2   shift, and go to state 23

    expr        go to state 119
    term        go to state 28
    assignexpr  go to state 29
    primary     go to state 30
    lvalue      go to state 31
    member      go to state 32
    call        go to state 33
    const       go to state 36


State 82

   34 term: lvalue PP .

    $default  reduce using rule 34 (term)


State 83

   36 term: lvalue MM .

    $default  reduce using rule 36 (term)


State 84

   60 tablemake: SBRKT_O . elist SBRKT_C
   61          | SBRKT_O . indexed SBRKT_C

    NOT      shift, and go to state 8
    LOCAL    shift, and go to state 9
    TRUE     shift, and go to state 10
    FALSE    shift, and go to state 11
    NIL      shift, and go to state 12
    MINUS    shift, and go to state 13
    PP       shift, and go to state 14
    MM       shift, and go to state 15
    INTEGER  shift, and go to state 16
    REAL     shift, and go to state 17
    ID       shift, and go to state 18
    STR      shift, and go to state 19
    BRKT_O   shift, and go to state 120
    PAR_O    shift, and go to state 21
    COLON2   shift, and go to state 23

    $default  reduce using rule 104 (elist)

    expr         go to state 97
    term         go to state 28
    assignexpr   go to state 29
    primary      go to state 30
    lvalue       go to state 31
    member       go to state 32
    call         go to state 33
    indexed      go to state 121
    indexedelem  go to state 122
    const        go to state 36
    elist        go to state 123


State 85

   48 member: lvalue DOT . ID

    ID  shift, and go to state 124


State 86

   53 call: lvalue $@1 . callsuffix

    PAR_O  shift, and go to state 125
    DOT2   shift, and go to state 126

    callsuffix  go to state 127
    normcall    go to state 128
    methodcall  go to state 129


State 87

   41 primary: lvalue tablemake .

    $default  reduce using rule 41 (primary)


State 88

   50 member: call SBRKT_O . expr SBRKT_C

    NOT      shift, and go to state 8
    LOCAL    shift, and go to state 9
    TRUE     shift, and go to state 10
    FALSE    shift, and go to state 11
    NIL      shift, and go to state 12
    MINUS    shift, and go to state 13
    PP       shift, and go to state 14
    MM       shift, and go to state 15
    INTEGER  shift, and go to state 16
    REAL     shift, and go to state 17
    ID       shift, and go to state 18
    STR      shift, and go to state 19
    PAR_O    shift, and go to state 21
    COLON2   shift, and go to state 23

    expr        go to state 130
    term        go to state 28
    assignexpr  go to state 29
    primary     go to state 30
    lvalue      go to state 31
    member      go to state 32
    call        go to state 33
    const       go to state 36


State 89

   51 call: call PAR_O . elist PAR_C

    NOT      shift, and go to state 8
    LOCAL    shift, and go to state 9
    TRUE     shift, and go to state 10
    FALSE    shift, and go to state 11
    NIL      shift, and go to state 12
    MINUS    shift, and go to state 13
    PP       shift, and go to state 14
    MM       shift, and go to state 15
    INTEGER  shift, and go to state 16
    REAL     shift, and go to state 17
    ID       shift, and go to state 18
    STR      shift, and go to state 19
    PAR_O    shift, and go to state 21
    COLON2   shift, and go to state 23

    $default  reduce using rule 104 (elist)

    expr        go to state 97
    term        go to state 28
    assignexpr  go to state 29
    primary     go to state 30
    lvalue      go to state 31
    member      go to state 32
    call        go to state 33
    const       go to state 36
    elist       go to state 131


State 90

   49 member: call DOT . ID

    ID  shift, and go to state 132


State 91

   91 ifstmt: ifprefix stmt .
   92       | ifprefix stmt . elseprefix stmt

    ELSE  shift, and go to state 133

    $default  reduce using rule 91 (ifstmt)

    elseprefix  go to state 134


State 92

   94 whilecont: PAR_O . expr PAR_C

    NOT      shift, and go to state 8
    LOCAL    shift, and go to state 9
    TRUE     shift, and go to state 10
    FALSE    shift, and go to state 11
    NIL      shift, and go to state 12
    MINUS    shift, and go to state 13
    PP       shift, and go to state 14
    MM       shift, and go to state 15
    INTEGER  shift, and go to state 16
    REAL     shift, and go to state 17
    ID       shift, and go to state 18
    STR      shift, and go to state 19
    PAR_O    shift, and go to state 21
    COLON2   shift, and go to state 23

    expr        go to state 135
    term        go to state 28
    assignexpr  go to state 29
    primary     go to state 30
    lvalue      go to state 31
    member      go to state 32
    call        go to state 33
    const       go to state 36


State 93

   95 whilestmt: whilestart whilecont . stmt

    IF        shift, and go to state 1
    WHILE     shift, and go to state 2
    FOR       shift, and go to state 3
    FUNCTION  shift, and go to state 4
    RETURN    shift, and go to state 5
    BREAK     shift, and go to state 6
    CONTINUE  shift, and go to state 7
    NOT       shift, and go to state 8
    LOCAL     shift, and go to state 9
    TRUE      shift, and go to state 10
    FALSE     shift, and go to state 11
    NIL       shift, and go to state 12
    MINUS     shift, and go to state 13
    PP        shift, and go to state 14
    MM        shift, and go to state 15
    INTEGER   shift, and go to state 16
    REAL      shift, and go to state 17
    ID        shift, and go to state 18
    STR       shift, and go to state 19
    BRKT_O    shift, and go to state 20
    PAR_O     shift, and go to state 21
    SEMICOL   shift, and go to state 22
    COLON2    shift, and go to state 23

    stmt        go to state 136
    expr        go to state 27
    term        go to state 28
    assignexpr  go to state 29
    primary     go to state 30
    lvalue      go to state 31
    member      go to state 32
    call        go to state 33
    block       go to state 34
    funcdef     go to state 35
    const       go to state 36
    ifprefix    go to state 37
    ifstmt      go to state 38
    whilestart  go to state 39
    whilestmt   go to state 40
    forprefix   go to state 41
    formiddle   go to state 42
    forstmt     go to state 43
    returnstmt  go to state 44


State 94

   99 formiddle: forprefix FOR_JMP . elist PAR_C FOR_JMP

    NOT      shift, and go to state 8
    LOCAL    shift, and go to state 9
    TRUE     shift, and go to state 10
    FALSE    shift, and go to state 11
    NIL      shift, and go to state 12
    MINUS    shift, and go to state 13
    PP       shift, and go to state 14
    MM       shift, and go to state 15
    INTEGER  shift, and go to state 16
    REAL     shift, and go to state 17
    ID       shift, and go to state 18
    STR      shift, and go to state 19
    PAR_O    shift, and go to state 21
    COLON2   shift, and go to state 23

    $default  reduce using rule 104 (elist)

    expr        go to state 97
    term        go to state 28
    assignexpr  go to state 29
    primary     go to state 30
    lvalue      go to state 31
    member      go to state 32
    call        go to state 33
    const       go to state 36
    elist       go to state 137


State 95

  100 forstmt: formiddle stmt . FOR_JMP

    $default  reduce using rule 97 (FOR_JMP)

    FOR_JMP  go to state 138


State 96

   16 expr: expr . PLUS expr
   17     | expr . MINUS expr
   18     | expr . MUL expr
   19     | expr . DIV expr
   20     | expr . MOD expr
   21     | expr . GREATER expr
   22     | expr . LESS expr
   23     | expr . GEQ expr
   24     | expr . LEQ expr
   25     | expr . EQ expr
   26     | expr . NEQ expr
   27     | expr . AND expr
   28     | expr . OR expr
   89 ifprefix: IF PAR_O expr . PAR_C

    AND      shift, and go to state 67
    OR       shift, and go to state 68
    PLUS     shift, and go to state 69
    MINUS    shift, and go to state 70
    MUL      shift, and go to state 71
    DIV      shift, and go to state 72
    MOD      shift, and go to state 73
    EQ       shift, and go to state 74
    NEQ      shift, and go to state 75
    GREATER  shift, and go to state 76
    LESS     shift, and go to state 77
    GEQ      shift, and go to state 78
    LEQ      shift, and go to state 79
    PAR_C    shift, and go to state 139


State 97

   16 expr: expr . PLUS expr
   17     | expr . MINUS expr
   18     | expr . MUL expr
   19     | expr . DIV expr
   20     | expr . MOD expr
   21     | expr . GREATER expr
   22     | expr . LESS expr
   23     | expr . GEQ expr
   24     | expr . LEQ expr
   25     | expr . EQ expr
   26     | expr . NEQ expr
   27     | expr . AND expr
   28     | expr . OR expr
  103 elist: expr . elist2

    AND      shift, and go to state 67
    OR       shift, and go to state 68
    PLUS     shift, and go to state 69
    MINUS    shift, and go to state 70
    MUL      shift, and go to state 71
    DIV      shift, and go to state 72
    MOD      shift, and go to state 73
    EQ       shift, and go to state 74
    NEQ      shift, and go to state 75
    GREATER  shift, and go to state 76
    LESS     shift, and go to state 77
    GEQ      shift, and go to state 78
    LEQ      shift, and go to state 79
    COMMA    shift, and go to state 140

    $default  reduce using rule 106 (elist2)

    elist2  go to state 141


State 98

   98 forprefix: FOR PAR_O elist . SEMICOL FOR_M expr SEMICOL

    SEMICOL  shift, and go to state 142


State 99

   72 funcdef: FUNCTION ID $@4 . PAR_O $@5 idlist $@6 PAR_C block

    PAR_O  shift, and go to state 143


State 100

   76 funcdef: FUNCTION PAR_O $@7 . idlist $@8 PAR_C $@9 block

    ID  shift, and go to state 144

    $default  reduce using rule 85 (idlist)

    idlist  go to state 145


State 101

  102 returnstmt: RETURN expr SEMICOL .

    $default  reduce using rule 102 (returnstmt)


State 102

   54 call: PAR_O funcdef . PAR_C PAR_O elist PAR_C

    PAR_C  shift, and go to state 146


State 103

    4 programcont: programcont . stmt
   68 block: BRKT_O $@3 programcont . BRKT_C

    IF        shift, and go to state 1
    WHILE     shift, and go to state 2
    FOR       shift, and go to state 3
    FUNCTION  shift, and go to state 4
    RETURN    shift, and go to state 5
    BREAK     shift, and go to state 6
    CONTINUE  shift, and go to state 7
    NOT       shift, and go to state 8
    LOCAL     shift, and go to state 9
    TRUE      shift, and go to state 10
    FALSE     shift, and go to state 11
    NIL       shift, and go to state 12
    MINUS     shift, and go to state 13
    PP        shift, and go to state 14
    MM        shift, and go to state 15
    INTEGER   shift, and go to state 16
    REAL      shift, and go to state 17
    ID        shift, and go to state 18
    STR       shift, and go to state 19
    BRKT_O    shift, and go to state 20
    BRKT_C    shift, and go to state 147
    PAR_O     shift, and go to state 21
    SEMICOL   shift, and go to state 22
    COLON2    shift, and go to state 23

    stmt        go to state 66
    expr        go to state 27
    term        go to state 28
    assignexpr  go to state 29
    primary     go to state 30
    lvalue      go to state 31
    member      go to state 32
    call        go to state 33
    block       go to state 34
    funcdef     go to state 35
    const       go to state 36
    ifprefix    go to state 37
    ifstmt      go to state 38
    whilestart  go to state 39
    whilestmt   go to state 40
    forprefix   go to state 41
    formiddle   go to state 42
    forstmt     go to state 43
    returnstmt  go to state 44


State 104

   30 term: PAR_O expr PAR_C .

    $default  reduce using rule 30 (term)


State 105

   42 primary: PAR_O funcdef PAR_C .
   54 call: PAR_O funcdef PAR_C . PAR_O elist PAR_C

    PAR_O  shift, and go to state 148

    $default  reduce using rule 42 (primary)


State 106

   16 expr: expr . PLUS expr
   17     | expr . MINUS expr
   18     | expr . MUL expr
   19     | expr . DIV expr
   20     | expr . MOD expr
   21     | expr . GREATER expr
   22     | expr . LESS expr
   23     | expr . GEQ expr
   24     | expr . LEQ expr
   25     | expr . EQ expr
   26     | expr . NEQ expr
   27     | expr . AND expr
   27     | expr AND expr .
   28     | expr . OR expr

    PLUS     shift, and go to state 69
    MINUS    shift, and go to state 70
    MUL      shift, and go to state 71
    DIV      shift, and go to state 72
    MOD      shift, and go to state 73
    EQ       shift, and go to state 74
    NEQ      shift, and go to state 75
    GREATER  shift, and go to state 76
    LESS     shift, and go to state 77
    GEQ      shift, and go to state 78
    LEQ      shift, and go to state 79

    $default  reduce using rule 27 (expr)


State 107

   16 expr: expr . PLUS expr
   17     | expr . MINUS expr
   18     | expr . MUL expr
   19     | expr . DIV expr
   20     | expr . MOD expr
   21     | expr . GREATER expr
   22     | expr . LESS expr
   23     | expr . GEQ expr
   24     | expr . LEQ expr
   25     | expr . EQ expr
   26     | expr . NEQ expr
   27     | expr . AND expr
   28     | expr . OR expr
   28     | expr OR expr .

    AND      shift, and go to state 67
    PLUS     shift, and go to state 69
    MINUS    shift, and go to state 70
    MUL      shift, and go to state 71
    DIV      shift, and go to state 72
    MOD      shift, and go to state 73
    EQ       shift, and go to state 74
    NEQ      shift, and go to state 75
    GREATER  shift, and go to state 76
    LESS     shift, and go to state 77
    GEQ      shift, and go to state 78
    LEQ      shift, and go to state 79

    $default  reduce using rule 28 (expr)


State 108

   16 expr: expr . PLUS expr
   16     | expr PLUS expr .
   17     | expr . MINUS expr
   18     | expr . MUL expr
   19     | expr . DIV expr
   20     | expr . MOD expr
   21     | expr . GREATER expr
   22     | expr . LESS expr
   23     | expr . GEQ expr
   24     | expr . LEQ expr
   25     | expr . EQ expr
   26     | expr . NEQ expr
   27     | expr . AND expr
   28     | expr . OR expr

    MUL  shift, and go to state 71
    DIV  shift, and go to state 72
    MOD  shift, and go to state 73

    $default  reduce using rule 16 (expr)


State 109

   16 expr: expr . PLUS expr
   17     | expr . MINUS expr
   17     | expr MINUS expr .
   18     | expr . MUL expr
   19     | expr . DIV expr
   20     | expr . MOD expr
   21     | expr . GREATER expr
   22     | expr . LESS expr
   23     | expr . GEQ expr
   24     | expr . LEQ expr
   25     | expr . EQ expr
   26     | expr . NEQ expr
   27     | expr . AND expr
   28     | expr . OR expr

    MUL  shift, and go to state 71
    DIV  shift, and go to state 72
    MOD  shift, and go to state 73

    $default  reduce using rule 17 (expr)


State 110

   16 expr: expr . PLUS expr
   17     | expr . MINUS expr
   18     | expr . MUL expr
   18     | expr MUL expr .
   19     | expr . DIV expr
   20     | expr . MOD expr
   21     | expr . GREATER expr
   22     | expr . LESS expr
   23     | expr . GEQ expr
   24     | expr . LEQ expr
   25     | expr . EQ expr
   26     | expr . NEQ expr
   27     | expr . AND expr
   28     | expr . OR expr

    $default  reduce using rule 18 (expr)


State 111

   16 expr: expr . PLUS expr
   17     | expr . MINUS expr
   18     | expr . MUL expr
   19     | expr . DIV expr
   19     | expr DIV expr .
   20     | expr . MOD expr
   21     | expr . GREATER expr
   22     | expr . LESS expr
   23     | expr . GEQ expr
   24     | expr . LEQ expr
   25     | expr . EQ expr
   26     | expr . NEQ expr
   27     | expr . AND expr
   28     | expr . OR expr

    $default  reduce using rule 19 (expr)


State 112

   16 expr: expr . PLUS expr
   17     | expr . MINUS expr
   18     | expr . MUL expr
   19     | expr . DIV expr
   20     | expr . MOD expr
   20     | expr MOD expr .
   21     | expr . GREATER expr
   22     | expr . LESS expr
   23     | expr . GEQ expr
   24     | expr . LEQ expr
   25     | expr . EQ expr
   26     | expr . NEQ expr
   27     | expr . AND expr
   28     | expr . OR expr

    $default  reduce using rule 20 (expr)


State 113

   16 expr: expr . PLUS expr
   17     | expr . MINUS expr
   18     | expr . MUL expr
   19     | expr . DIV expr
   20     | expr . MOD expr
   21     | expr . GREATER expr
   22     | expr . LESS expr
   23     | expr . GEQ expr
   24     | expr . LEQ expr
   25     | expr . EQ expr
   25     | expr EQ expr .
   26     | expr . NEQ expr
   27     | expr . AND expr
   28     | expr . OR expr

    PLUS     shift, and go to state 69
    MINUS    shift, and go to state 70
    MUL      shift, and go to state 71
    DIV      shift, and go to state 72
    MOD      shift, and go to state 73
    GREATER  shift, and go to state 76
    LESS     shift, and go to state 77
    GEQ      shift, and go to state 78
    LEQ      shift, and go to state 79

    EQ   error (nonassociative)
    NEQ  error (nonassociative)

    $default  reduce using rule 25 (expr)


State 114

   16 expr: expr . PLUS expr
   17     | expr . MINUS expr
   18     | expr . MUL expr
   19     | expr . DIV expr
   20     | expr . MOD expr
   21     | expr . GREATER expr
   22     | expr . LESS expr
   23     | expr . GEQ expr
   24     | expr . LEQ expr
   25     | expr . EQ expr
   26     | expr . NEQ expr
   26     | expr NEQ expr .
   27     | expr . AND expr
   28     | expr . OR expr

    PLUS     shift, and go to state 69
    MINUS    shift, and go to state 70
    MUL      shift, and go to state 71
    DIV      shift, and go to state 72
    MOD      shift, and go to state 73
    GREATER  shift, and go to state 76
    LESS     shift, and go to state 77
    GEQ      shift, and go to state 78
    LEQ      shift, and go to state 79

    EQ   error (nonassociative)
    NEQ  error (nonassociative)

    $default  reduce using rule 26 (expr)


State 115

   16 expr: expr . PLUS expr
   17     | expr . MINUS expr
   18     | expr . MUL expr
   19     | expr . DIV expr
   20     | expr . MOD expr
   21     | expr . GREATER expr
   21     | expr GREATER expr .
   22     | expr . LESS expr
   23     | expr . GEQ expr
   24     | expr . LEQ expr
   25     | expr . EQ expr
   26     | expr . NEQ expr
   27     | expr . AND expr
   28     | expr . OR expr

    PLUS   shift, and go to state 69
    MINUS  shift, and go to state 70
    MUL    shift, and go to state 71
    DIV    shift, and go to state 72
    MOD    shift, and go to state 73

    GREATER  error (nonassociative)
    LESS     error (nonassociative)
    GEQ      error (nonassociative)
    LEQ      error (nonassociative)

    $default  reduce using rule 21 (expr)


State 116

   16 expr: expr . PLUS expr
   17     | expr . MINUS expr
   18     | expr . MUL expr
   19     | expr . DIV expr
   20     | expr . MOD expr
   21     | expr . GREATER expr
   22     | expr . LESS expr
   22     | expr LESS expr .
   23     | expr . GEQ expr
   24     | expr . LEQ expr
   25     | expr . EQ expr
   26     | expr . NEQ expr
   27     | expr . AND expr
   28     | expr . OR expr

    PLUS   shift, and go to state 69
    MINUS  shift, and go to state 70
    MUL    shift, and go to state 71
    DIV    shift, and go to state 72
    MOD    shift, and go to state 73

    GREATER  error (nonassociative)
    LESS     error (nonassociative)
    GEQ      error (nonassociative)
    LEQ      error (nonassociative)

    $default  reduce using rule 22 (expr)


State 117

   16 expr: expr . PLUS expr
   17     | expr . MINUS expr
   18     | expr . MUL expr
   19     | expr . DIV expr
   20     | expr . MOD expr
   21     | expr . GREATER expr
   22     | expr . LESS expr
   23     | expr . GEQ expr
   23     | expr GEQ expr .
   24     | expr . LEQ expr
   25     | expr . EQ expr
   26     | expr . NEQ expr
   27     | expr . AND expr
   28     | expr . OR expr

    PLUS   shift, and go to state 69
    MINUS  shift, and go to state 70
    MUL    shift, and go to state 71
    DIV    shift, and go to state 72
    MOD    shift, and go to state 73

    GREATER  error (nonassociative)
    LESS     error (nonassociative)
    GEQ      error (nonassociative)
    LEQ      error (nonassociative)

    $default  reduce using rule 23 (expr)


State 118

   16 expr: expr . PLUS expr
   17     | expr . MINUS expr
   18     | expr . MUL expr
   19     | expr . DIV expr
   20     | expr . MOD expr
   21     | expr . GREATER expr
   22     | expr . LESS expr
   23     | expr . GEQ expr
   24     | expr . LEQ expr
   24     | expr LEQ expr .
   25     | expr . EQ expr
   26     | expr . NEQ expr
   27     | expr . AND expr
   28     | expr . OR expr

    PLUS   shift, and go to state 69
    MINUS  shift, and go to state 70
    MUL    shift, and go to state 71
    DIV    shift, and go to state 72
    MOD    shift, and go to state 73

    GREATER  error (nonassociative)
    LESS     error (nonassociative)
    GEQ      error (nonassociative)
    LEQ      error (nonassociative)

    $default  reduce using rule 24 (expr)


State 119

   16 expr: expr . PLUS expr
   17     | expr . MINUS expr
   18     | expr . MUL expr
   19     | expr . DIV expr
   20     | expr . MOD expr
   21     | expr . GREATER expr
   22     | expr . LESS expr
   23     | expr . GEQ expr
   24     | expr . LEQ expr
   25     | expr . EQ expr
   26     | expr . NEQ expr
   27     | expr . AND expr
   28     | expr . OR expr
   38 assignexpr: lvalue ASSIGN expr .

    AND      shift, and go to state 67
    OR       shift, and go to state 68
    PLUS     shift, and go to state 69
    MINUS    shift, and go to state 70
    MUL      shift, and go to state 71
    DIV      shift, and go to state 72
    MOD      shift, and go to state 73
    EQ       shift, and go to state 74
    NEQ      shift, and go to state 75
    GREATER  shift, and go to state 76
    LESS     shift, and go to state 77
    GEQ      shift, and go to state 78
    LEQ      shift, and go to state 79

    $default  reduce using rule 38 (assignexpr)


State 120

   65 indexedelem: BRKT_O . expr COLON expr BRKT_C

    NOT      shift, and go to state 8
    LOCAL    shift, and go to state 9
    TRUE     shift, and go to state 10
    FALSE    shift, and go to state 11
    NIL      shift, and go to state 12
    MINUS    shift, and go to state 13
    PP       shift, and go to state 14
    MM       shift, and go to state 15
    INTEGER  shift, and go to state 16
    REAL     shift, and go to state 17
    ID       shift, and go to state 18
    STR      shift, and go to state 19
    PAR_O    shift, and go to state 21
    COLON2   shift, and go to state 23

    expr        go to state 149
    term        go to state 28
    assignexpr  go to state 29
    primary     go to state 30
    lvalue      go to state 31
    member      go to state 32
    call        go to state 33
    const       go to state 36


State 121

   61 tablemake: SBRKT_O indexed . SBRKT_C

    SBRKT_C  shift, and go to state 150


State 122

   62 indexed: indexedelem . indexed2

    COMMA  shift, and go to state 151

    $default  reduce using rule 64 (indexed2)

    indexed2  go to state 152


State 123

   60 tablemake: SBRKT_O elist . SBRKT_C

    SBRKT_C  shift, and go to state 153


State 124

   48 member: lvalue DOT ID .

    $default  reduce using rule 48 (member)


State 125

   57 normcall: PAR_O . elist PAR_C

    NOT      shift, and go to state 8
    LOCAL    shift, and go to state 9
    TRUE     shift, and go to state 10
    FALSE    shift, and go to state 11
    NIL      shift, and go to state 12
    MINUS    shift, and go to state 13
    PP       shift, and go to state 14
    MM       shift, and go to state 15
    INTEGER  shift, and go to state 16
    REAL     shift, and go to state 17
    ID       shift, and go to state 18
    STR      shift, and go to state 19
    PAR_O    shift, and go to state 21
    COLON2   shift, and go to state 23

    $default  reduce using rule 104 (elist)

    expr        go to state 97
    term        go to state 28
    assignexpr  go to state 29
    primary     go to state 30
    lvalue      go to state 31
    member      go to state 32
    call        go to state 33
    const       go to state 36
    elist       go to state 154


State 126

   59 methodcall: DOT2 . ID $@2 PAR_O elist PAR_C

    ID  shift, and go to state 155


State 127

   53 call: lvalue $@1 callsuffix .

    $default  reduce using rule 53 (call)


State 128

   55 callsuffix: normcall .

    $default  reduce using rule 55 (callsuffix)


State 129

   56 callsuffix: methodcall .

    $default  reduce using rule 56 (callsuffix)


State 130

   16 expr: expr . PLUS expr
   17     | expr . MINUS expr
   18     | expr . MUL expr
   19     | expr . DIV expr
   20     | expr . MOD expr
   21     | expr . GREATER expr
   22     | expr . LESS expr
   23     | expr . GEQ expr
   24     | expr . LEQ expr
   25     | expr . EQ expr
   26     | expr . NEQ expr
   27     | expr . AND expr
   28     | expr . OR expr
   50 member: call SBRKT_O expr . SBRKT_C

    AND      shift, and go to state 67
    OR       shift, and go to state 68
    PLUS     shift, and go to state 69
    MINUS    shift, and go to state 70
    MUL      shift, and go to state 71
    DIV      shift, and go to state 72
    MOD      shift, and go to state 73
    EQ       shift, and go to state 74
    NEQ      shift, and go to state 75
    GREATER  shift, and go to state 76
    LESS     shift, and go to state 77
    GEQ      shift, and go to state 78
    LEQ      shift, and go to state 79
    SBRKT_C  shift, and go to state 156


State 131

   51 call: call PAR_O elist . PAR_C

    PAR_C  shift, and go to state 157


State 132

   49 member: call DOT ID .

    $default  reduce using rule 49 (member)


State 133

   90 elseprefix: ELSE .

    $default  reduce using rule 90 (elseprefix)


State 134

   92 ifstmt: ifprefix stmt elseprefix . stmt

    IF        shift, and go to state 1
    WHILE     shift, and go to state 2
    FOR       shift, and go to state 3
    FUNCTION  shift, and go to state 4
    RETURN    shift, and go to state 5
    BREAK     shift, and go to state 6
    CONTINUE  shift, and go to state 7
    NOT       shift, and go to state 8
    LOCAL     shift, and go to state 9
    TRUE      shift, and go to state 10
    FALSE     shift, and go to state 11
    NIL       shift, and go to state 12
    MINUS     shift, and go to state 13
    PP        shift, and go to state 14
    MM        shift, and go to state 15
    INTEGER   shift, and go to state 16
    REAL      shift, and go to state 17
    ID        shift, and go to state 18
    STR       shift, and go to state 19
    BRKT_O    shift, and go to state 20
    PAR_O     shift, and go to state 21
    SEMICOL   shift, and go to state 22
    COLON2    shift, and go to state 23

    stmt        go to state 158
    expr        go to state 27
    term        go to state 28
    assignexpr  go to state 29
    primary     go to state 30
    lvalue      go to state 31
    member      go to state 32
    call        go to state 33
    block       go to state 34
    funcdef     go to state 35
    const       go to state 36
    ifprefix    go to state 37
    ifstmt      go to state 38
    whilestart  go to state 39
    whilestmt   go to state 40
    forprefix   go to state 41
    formiddle   go to state 42
    forstmt     go to state 43
    returnstmt  go to state 44


State 135

   16 expr: expr . PLUS expr
   17     | expr . MINUS expr
   18     | expr . MUL expr
   19     | expr . DIV expr
   20     | expr . MOD expr
   21     | expr . GREATER expr
   22     | expr . LESS expr
   23     | expr . GEQ expr
   24     | expr . LEQ expr
   25     | expr . EQ expr
   26     | expr . NEQ expr
   27     | expr . AND expr
   28     | expr . OR expr
   94 whilecont: PAR_O expr . PAR_C

    AND      shift, and go to state 67
    OR       shift, and go to state 68
    PLUS     shift, and go to state 69
    MINUS    shift, and go to state 70
    MUL      shift, and go to state 71
    DIV      shift, and go to state 72
    MOD      shift, and go to state 73
    EQ       shift, and go to state 74
    NEQ      shift, and go to state 75
    GREATER  shift, and go to state 76
    LESS     shift, and go to state 77
    GEQ      shift, and go to state 78
    LEQ      shift, and go to state 79
    PAR_C    shift, and go to state 159


State 136

   95 whilestmt: whilestart whilecont stmt .

    $default  reduce using rule 95 (whilestmt)


State 137

   99 formiddle: forprefix FOR_JMP elist . PAR_C FOR_JMP

    PAR_C  shift, and go to state 160


State 138

  100 forstmt: formiddle stmt FOR_JMP .

    $default  reduce using rule 100 (forstmt)


State 139

   89 ifprefix: IF PAR_O expr PAR_C .

    $default  reduce using rule 89 (ifprefix)


State 140

  105 elist2: COMMA . expr elist2

    NOT      shift, and go to state 8
    LOCAL    shift, and go to state 9
    TRUE     shift, and go to state 10
    FALSE    shift, and go to state 11
    NIL      shift, and go to state 12
    MINUS    shift, and go to state 13
    PP       shift, and go to state 14
    MM       shift, and go to state 15
    INTEGER  shift, and go to state 16
    REAL     shift, and go to state 17
    ID       shift, and go to state 18
    STR      shift, and go to state 19
    PAR_O    shift, and go to state 21
    COLON2   shift, and go to state 23

    expr        go to state 161
    term        go to state 28
    assignexpr  go to state 29
    primary     go to state 30
    lvalue      go to state 31
    member      go to state 32
    call        go to state 33
    const       go to state 36


State 141

  103 elist: expr elist2 .

    $default  reduce using rule 103 (elist)


State 142

   98 forprefix: FOR PAR_O elist SEMICOL . FOR_M expr SEMICOL

    $default  reduce using rule 96 (FOR_M)

    FOR_M  go to state 162


State 143

   72 funcdef: FUNCTION ID $@4 PAR_O . $@5 idlist $@6 PAR_C block

    $default  reduce using rule 70 ($@5)

    $@5  go to state 163


State 144

   84 idlist: ID . $@10 idlist2

    $default  reduce using rule 83 ($@10)

    $@10  go to state 164


State 145

   76 funcdef: FUNCTION PAR_O $@7 idlist . $@8 PAR_C $@9 block

    $default  reduce using rule 74 ($@8)

    $@8  go to state 165


State 146

   54 call: PAR_O funcdef PAR_C . PAR_O elist PAR_C

    PAR_O  shift, and go to state 148


State 147

   68 block: BRKT_O $@3 programcont BRKT_C .

    $default  reduce using rule 68 (block)


State 148

   54 call: PAR_O funcdef PAR_C PAR_O . elist PAR_C

    NOT      shift, and go to state 8
    LOCAL    shift, and go to state 9
    TRUE     shift, and go to state 10
    FALSE    shift, and go to state 11
    NIL      shift, and go to state 12
    MINUS    shift, and go to state 13
    PP       shift, and go to state 14
    MM       shift, and go to state 15
    INTEGER  shift, and go to state 16
    REAL     shift, and go to state 17
    ID       shift, and go to state 18
    STR      shift, and go to state 19
    PAR_O    shift, and go to state 21
    COLON2   shift, and go to state 23

    $default  reduce using rule 104 (elist)

    expr        go to state 97
    term        go to state 28
    assignexpr  go to state 29
    primary     go to state 30
    lvalue      go to state 31
    member      go to state 32
    call        go to state 33
    const       go to state 36
    elist       go to state 166


State 149

   16 expr: expr . PLUS expr
   17     | expr . MINUS expr
   18     | expr . MUL expr
   19     | expr . DIV expr
   20     | expr . MOD expr
   21     | expr . GREATER expr
   22     | expr . LESS expr
   23     | expr . GEQ expr
   24     | expr . LEQ expr
   25     | expr . EQ expr
   26     | expr . NEQ expr
   27     | expr . AND expr
   28     | expr . OR expr
   65 indexedelem: BRKT_O expr . COLON expr BRKT_C

    AND      shift, and go to state 67
    OR       shift, and go to state 68
    PLUS     shift, and go to state 69
    MINUS    shift, and go to state 70
    MUL      shift, and go to state 71
    DIV      shift, and go to state 72
    MOD      shift, and go to state 73
    EQ       shift, and go to state 74
    NEQ      shift, and go to state 75
    GREATER  shift, and go to state 76
    LESS     shift, and go to state 77
    GEQ      shift, and go to state 78
    LEQ      shift, and go to state 79
    COLON    shift, and go to state 167


State 150

   61 tablemake: SBRKT_O indexed SBRKT_C .

    $default  reduce using rule 61 (tablemake)


State 151

   63 indexed2: COMMA . indexedelem indexed2

    BRKT_O  shift, and go to state 120

    indexedelem  go to state 168


State 152

   62 indexed: indexedelem indexed2 .

    $default  reduce using rule 62 (indexed)


State 153

   60 tablemake: SBRKT_O elist SBRKT_C .

    $default  reduce using rule 60 (tablemake)


State 154

   57 normcall: PAR_O elist . PAR_C

    PAR_C  shift, and go to state 169


State 155

   59 methodcall: DOT2 ID . $@2 PAR_O elist PAR_C

    $default  reduce using rule 58 ($@2)

    $@2  go to state 170


State 156

   50 member: call SBRKT_O expr SBRKT_C .

    $default  reduce using rule 50 (member)


State 157

   51 call: call PAR_O elist PAR_C .

    $default  reduce using rule 51 (call)


State 158

   92 ifstmt: ifprefix stmt elseprefix stmt .

    $default  reduce using rule 92 (ifstmt)


State 159

   94 whilecont: PAR_O expr PAR_C .

    $default  reduce using rule 94 (whilecont)


State 160

   99 formiddle: forprefix FOR_JMP elist PAR_C . FOR_JMP

    $default  reduce using rule 97 (FOR_JMP)

    FOR_JMP  go to state 171


State 161

   16 expr: expr . PLUS expr
   17     | expr . MINUS expr
   18     | expr . MUL expr
   19     | expr . DIV expr
   20     | expr . MOD expr
   21     | expr . GREATER expr
   22     | expr . LESS expr
   23     | expr . GEQ expr
   24     | expr . LEQ expr
   25     | expr . EQ expr
   26     | expr . NEQ expr
   27     | expr . AND expr
   28     | expr . OR expr
  105 elist2: COMMA expr . elist2

    AND      shift, and go to state 67
    OR       shift, and go to state 68
    PLUS     shift, and go to state 69
    MINUS    shift, and go to state 70
    MUL      shift, and go to state 71
    DIV      shift, and go to state 72
    MOD      shift, and go to state 73
    EQ       shift, and go to state 74
    NEQ      shift, and go to state 75
    GREATER  shift, and go to state 76
    LESS     shift, and go to state 77
    GEQ      shift, and go to state 78
    LEQ      shift, and go to state 79
    COMMA    shift, and go to state 140

    $default  reduce using rule 106 (elist2)

    elist2  go to state 172


State 162

   98 forprefix: FOR PAR_O elist SEMICOL FOR_M . expr SEMICOL

    NOT      shift, and go to state 8
    LOCAL    shift, and go to state 9
    TRUE     shift, and go to state 10
    FALSE    shift, and go to state 11
    NIL      shift, and go to state 12
    MINUS    shift, and go to state 13
    PP       shift, and go to state 14
    MM       shift, and go to state 15
    INTEGER  shift, and go to state 16
    REAL     shift, and go to state 17
    ID       shift, and go to state 18
    STR      shift, and go to state 19
    PAR_O    shift, and go to state 21
    COLON2   shift, and go to state 23

    expr        go to state 173
    term        go to state 28
    assignexpr  go to state 29
    primary     go to state 30
    lvalue      go to state 31
    member      go to state 32
    call        go to state 33
    const       go to state 36


State 163

   72 funcdef: FUNCTION ID $@4 PAR_O $@5 . idlist $@6 PAR_C block

    ID  shift, and go to state 144

    $default  reduce using rule 85 (idlist)

    idlist  go to state 174


State 164

   84 idlist: ID $@10 . idlist2

    COMMA  shift, and go to state 175

    $default  reduce using rule 88 (idlist2)

    idlist2  go to state 176


State 165

   76 funcdef: FUNCTION PAR_O $@7 idlist $@8 . PAR_C $@9 block

    PAR_C  shift, and go to state 177


State 166

   54 call: PAR_O funcdef PAR_C PAR_O elist . PAR_C

    PAR_C  shift, and go to state 178


State 167

   65 indexedelem: BRKT_O expr COLON . expr BRKT_C

    NOT      shift, and go to state 8
    LOCAL    shift, and go to state 9
    TRUE     shift, and go to state 10
    FALSE    shift, and go to state 11
    NIL      shift, and go to state 12
    MINUS    shift, and go to state 13
    PP       shift, and go to state 14
    MM       shift, and go to state 15
    INTEGER  shift, and go to state 16
    REAL     shift, and go to state 17
    ID       shift, and go to state 18
    STR      shift, and go to state 19
    PAR_O    shift, and go to state 21
    COLON2   shift, and go to state 23

    expr        go to state 179
    term        go to state 28
    assignexpr  go to state 29
    primary     go to state 30
    lvalue      go to state 31
    member      go to state 32
    call        go to state 33
    const       go to state 36


State 168

   63 indexed2: COMMA indexedelem . indexed2

    COMMA  shift, and go to state 151

    $default  reduce using rule 64 (indexed2)

    indexed2  go to state 180


State 169

   57 normcall: PAR_O elist PAR_C .

    $default  reduce using rule 57 (normcall)


State 170

   59 methodcall: DOT2 ID $@2 . PAR_O elist PAR_C

    PAR_O  shift, and go to state 181


State 171

   99 formiddle: forprefix FOR_JMP elist PAR_C FOR_JMP .

    $default  reduce using rule 99 (formiddle)


State 172

  105 elist2: COMMA expr elist2 .

    $default  reduce using rule 105 (elist2)


State 173

   16 expr: expr . PLUS expr
   17     | expr . MINUS expr
   18     | expr . MUL expr
   19     | expr . DIV expr
   20     | expr . MOD expr
   21     | expr . GREATER expr
   22     | expr . LESS expr
   23     | expr . GEQ expr
   24     | expr . LEQ expr
   25     | expr . EQ expr
   26     | expr . NEQ expr
   27     | expr . AND expr
   28     | expr . OR expr
   98 forprefix: FOR PAR_O elist SEMICOL FOR_M expr . SEMICOL

    AND      shift, and go to state 67
    OR       shift, and go to state 68
    PLUS     shift, and go to state 69
    MINUS    shift, and go to state 70
    MUL      shift, and go to state 71
    DIV      shift, and go to state 72
    MOD      shift, and go to state 73
    EQ       shift, and go to state 74
    NEQ      shift, and go to state 75
    GREATER  shift, and go to state 76
    LESS     shift, and go to state 77
    GEQ      shift, and go to state 78
    LEQ      shift, and go to state 79
    SEMICOL  shift, and go to state 182


State 174

   72 funcdef: FUNCTION ID $@4 PAR_O $@5 idlist . $@6 PAR_C block

    $default  reduce using rule 71 ($@6)

    $@6  go to state 183


State 175

   87 idlist2: COMMA . ID $@11 idlist2

    ID  shift, and go to state 184


State 176

   84 idlist: ID $@10 idlist2 .

    $default  reduce using rule 84 (idlist)


State 177

   76 funcdef: FUNCTION PAR_O $@7 idlist $@8 PAR_C . $@9 block

    $default  reduce using rule 75 ($@9)

    $@9  go to state 185


State 178

   54 call: PAR_O funcdef PAR_C PAR_O elist PAR_C .

    $default  reduce using rule 54 (call)


State 179

   16 expr: expr . PLUS expr
   17     | expr . MINUS expr
   18     | expr . MUL expr
   19     | expr . DIV expr
   20     | expr . MOD expr
   21     | expr . GREATER expr
   22     | expr . LESS expr
   23     | expr . GEQ expr
   24     | expr . LEQ expr
   25     | expr . EQ expr
   26     | expr . NEQ expr
   27     | expr . AND expr
   28     | expr . OR expr
   65 indexedelem: BRKT_O expr COLON expr . BRKT_C

    AND      shift, and go to state 67
    OR       shift, and go to state 68
    PLUS     shift, and go to state 69
    MINUS    shift, and go to state 70
    MUL      shift, and go to state 71
    DIV      shift, and go to state 72
    MOD      shift, and go to state 73
    EQ       shift, and go to state 74
    NEQ      shift, and go to state 75
    GREATER  shift, and go to state 76
    LESS     shift, and go to state 77
    GEQ      shift, and go to state 78
    LEQ      shift, and go to state 79
    BRKT_C   shift, and go to state 186


State 180

   63 indexed2: COMMA indexedelem indexed2 .

    $default  reduce using rule 63 (indexed2)


State 181

   59 methodcall: DOT2 ID $@2 PAR_O . elist PAR_C

    NOT      shift, and go to state 8
    LOCAL    shift, and go to state 9
    TRUE     shift, and go to state 10
    FALSE    shift, and go to state 11
    NIL      shift, and go to state 12
    MINUS    shift, and go to state 13
    PP       shift, and go to state 14
    MM       shift, and go to state 15
    INTEGER  shift, and go to state 16
    REAL     shift, and go to state 17
    ID       shift, and go to state 18
    STR      shift, and go to state 19
    PAR_O    shift, and go to state 21
    COLON2   shift, and go to state 23

    $default  reduce using rule 104 (elist)

    expr        go to state 97
    term        go to state 28
    assignexpr  go to state 29
    primary     go to state 30
    lvalue      go to state 31
    member      go to state 32
    call        go to state 33
    const       go to state 36
    elist       go to state 187


State 182

   98 forprefix: FOR PAR_O elist SEMICOL FOR_M expr SEMICOL .

    $default  reduce using rule 98 (forprefix)


State 183

   72 funcdef: FUNCTION ID $@4 PAR_O $@5 idlist $@6 . PAR_C block

    PAR_C  shift, and go to state 188


State 184

   87 idlist2: COMMA ID . $@11 idlist2

    $default  reduce using rule 86 ($@11)

    $@11  go to state 189


State 185

   76 funcdef: FUNCTION PAR_O $@7 idlist $@8 PAR_C $@9 . block

    BRKT_O  shift, and go to state 20

    block  go to state 190


State 186

   65 indexedelem: BRKT_O expr COLON expr BRKT_C .

    $default  reduce using rule 65 (indexedelem)


State 187

   59 methodcall: DOT2 ID $@2 PAR_O elist . PAR_C

    PAR_C  shift, and go to state 191


State 188

   72 funcdef: FUNCTION ID $@4 PAR_O $@5 idlist $@6 PAR_C . block

    BRKT_O  shift, and go to state 20

    block  go to state 192


State 189

   87 idlist2: COMMA ID $@11 . idlist2

    COMMA  shift, and go to state 175

    $default  reduce using rule 88 (idlist2)

    idlist2  go to state 193


State 190

   76 funcdef: FUNCTION PAR_O $@7 idlist $@8 PAR_C $@9 block .

    $default  reduce using rule 76 (funcdef)


State 191

   59 methodcall: DOT2 ID $@2 PAR_O elist PAR_C .

    $default  reduce using rule 59 (methodcall)


State 192

   72 funcdef: FUNCTION ID $@4 PAR_O $@5 idlist $@6 PAR_C block .

    $default  reduce using rule 72 (funcdef)


State 193

   87 idlist2: COMMA ID $@11 idlist2 .

    $default  reduce using rule 87 (idlist2)
